Annotation1,AnnotationBeginTime1,AnnotationEndTime1,AnnotationDuration1,TierName1,TierType1,TierParticipant1,TranscriptionName
--,0,2335830,2335830,act-aud-P,act-aud,père,../data/inputfiles/FD-F4-DIN1-01-07-2022.eaf
--,0,2335830,2335830,script-lng-vis-P,prod-visible,père,../data/inputfiles/FD-F4-DIN1-01-07-2022.eaf
--,0,2138486,2138486,interloc-lng-vis-P,INTERLOC,père,../data/inputfiles/FD-F4-DIN1-01-07-2022.eaf
--,0,57000,57000,interact-act-vis-P,INTERLOC,père,../data/inputfiles/FD-F4-DIN1-01-07-2022.eaf
--,0,70085,70085,script-lng-aud-P,prod-audible,père,../data/inputfiles/FD-F4-DIN1-01-07-2022.eaf
--,0,2335830,2335830,trad-lng-vis-P,traduction,père,../data/inputfiles/FD-F4-DIN1-01-07-2022.eaf
--,0,70085,70085,interloc-lng-aud-P,INTERLOC,père,../data/inputfiles/FD-F4-DIN1-01-07-2022.eaf
--,0,2335830,2335830,interact-act-aud-P,INTERLOC,père,../data/inputfiles/FD-F4-DIN1-01-07-2022.eaf
--,0,2335830,2335830,reg-P,reg 1,père,../data/inputfiles/FD-F4-DIN1-01-07-2022.eaf
--,0,2138486,2138486,lng-vis-P,lng-vis,père,../data/inputfiles/FD-F4-DIN1-01-07-2022.eaf
--,0,57000,57000,act-vis-P,act-vis,père,../data/inputfiles/FD-F4-DIN1-01-07-2022.eaf
--,0,2335830,2335830,reg-2-P,reg 2,père,../data/inputfiles/FD-F4-DIN1-01-07-2022.eaf
--,0,70085,70085,lng-aud-P,lng-aud,père,../data/inputfiles/FD-F4-DIN1-01-07-2022.eaf
everybody,57000,63900,6900,interact-act-vis-P,INTERLOC,père,../data/inputfiles/FD-F4-DIN1-01-07-2022.eaf
non-din,57000,63900,6900,act-vis-P,act-vis,père,../data/inputfiles/FD-F4-DIN1-01-07-2022.eaf
,63900,79870,15970,interact-act-vis-P,INTERLOC,père,../data/inputfiles/FD-F4-DIN1-01-07-2022.eaf
din,63900,79870,15970,act-vis-P,act-vis,père,../data/inputfiles/FD-F4-DIN1-01-07-2022.eaf
+< direct attaqué .,70085,71117,1032,script-lng-aud-P,prod-audible,père,../data/inputfiles/FD-F4-DIN1-01-07-2022.eaf
fra,70085,71117,1032,lng-aud-P,lng-aud,père,../data/inputfiles/FD-F4-DIN1-01-07-2022.eaf
1-Eb,70085,71117,1032,interloc-lng-aud-P,INTERLOC,père,../data/inputfiles/FD-F4-DIN1-01-07-2022.eaf
--,71117,84194,13077,lng-aud-P,lng-aud,père,../data/inputfiles/FD-F4-DIN1-01-07-2022.eaf
--,71117,84194,13077,script-lng-aud-P,prod-audible,père,../data/inputfiles/FD-F4-DIN1-01-07-2022.eaf
--,71117,84194,13077,interloc-lng-aud-P,INTERLOC,père,../data/inputfiles/FD-F4-DIN1-01-07-2022.eaf
--,79870,418747,338877,interact-act-vis-P,INTERLOC,père,../data/inputfiles/FD-F4-DIN1-01-07-2022.eaf
--,79870,122110,42240,act-vis-P,act-vis,père,../data/inputfiles/FD-F4-DIN1-01-07-2022.eaf
+< xxx .,84194,86179,1985,script-lng-aud-P,prod-audible,père,../data/inputfiles/FD-F4-DIN1-01-07-2022.eaf
nona,84194,86179,1985,interloc-lng-aud-P,INTERLOC,père,../data/inputfiles/FD-F4-DIN1-01-07-2022.eaf
--,84194,86179,1985,lng-aud-P,lng-aud,père,../data/inputfiles/FD-F4-DIN1-01-07-2022.eaf
--,86179,89660,3481,script-lng-aud-P,prod-audible,père,../data/inputfiles/FD-F4-DIN1-01-07-2022.eaf
--,86179,89660,3481,interloc-lng-aud-P,INTERLOC,père,../data/inputfiles/FD-F4-DIN1-01-07-2022.eaf
--,86179,89660,3481,lng-aud-P,lng-aud,père,../data/inputfiles/FD-F4-DIN1-01-07-2022.eaf
non ?,89660,90302,642,script-lng-aud-P,prod-audible,père,../data/inputfiles/FD-F4-DIN1-01-07-2022.eaf
1-Ea,89660,90302,642,interloc-lng-aud-P,INTERLOC,père,../data/inputfiles/FD-F4-DIN1-01-07-2022.eaf
fra,89660,90302,642,lng-aud-P,lng-aud,père,../data/inputfiles/FD-F4-DIN1-01-07-2022.eaf
--,90302,96238,5936,lng-aud-P,lng-aud,père,../data/inputfiles/FD-F4-DIN1-01-07-2022.eaf
--,90302,96238,5936,script-lng-aud-P,prod-audible,père,../data/inputfiles/FD-F4-DIN1-01-07-2022.eaf
--,90302,96238,5936,interloc-lng-aud-P,INTERLOC,père,../data/inputfiles/FD-F4-DIN1-01-07-2022.eaf
fra,96238,98120,1882,lng-aud-P,lng-aud,père,../data/inputfiles/FD-F4-DIN1-01-07-2022.eaf
1-Eb,96238,98120,1882,interloc-lng-aud-P,INTERLOC,père,../data/inputfiles/FD-F4-DIN1-01-07-2022.eaf
+< xxx .,96238,98120,1882,script-lng-aud-P,prod-audible,père,../data/inputfiles/FD-F4-DIN1-01-07-2022.eaf
fra,98120,99697,1577,lng-aud-P,lng-aud,père,../data/inputfiles/FD-F4-DIN1-01-07-2022.eaf
1-Eb,98120,99697,1577,interloc-lng-aud-P,INTERLOC,père,../data/inputfiles/FD-F4-DIN1-01-07-2022.eaf
j(e) vais préparer ça après .,98120,99697,1577,script-lng-aud-P,prod-audible,père,../data/inputfiles/FD-F4-DIN1-01-07-2022.eaf
--,99697,101477,1780,script-lng-aud-P,prod-audible,père,../data/inputfiles/FD-F4-DIN1-01-07-2022.eaf
--,99697,101477,1780,lng-aud-P,lng-aud,père,../data/inputfiles/FD-F4-DIN1-01-07-2022.eaf
--,99697,101477,1780,interloc-lng-aud-P,INTERLOC,père,../data/inputfiles/FD-F4-DIN1-01-07-2022.eaf
+< tu patientes .,101477,103715,2238,script-lng-aud-P,prod-audible,père,../data/inputfiles/FD-F4-DIN1-01-07-2022.eaf
1-Eb,101477,103715,2238,interloc-lng-aud-P,INTERLOC,père,../data/inputfiles/FD-F4-DIN1-01-07-2022.eaf
fra,101477,103715,2238,lng-aud-P,lng-aud,père,../data/inputfiles/FD-F4-DIN1-01-07-2022.eaf
tu piques ?,103715,105179,1464,script-lng-aud-P,prod-audible,père,../data/inputfiles/FD-F4-DIN1-01-07-2022.eaf
1-Eb,103715,105179,1464,interloc-lng-aud-P,INTERLOC,père,../data/inputfiles/FD-F4-DIN1-01-07-2022.eaf
fra,103715,105179,1464,lng-aud-P,lng-aud,père,../data/inputfiles/FD-F4-DIN1-01-07-2022.eaf
--,105179,108307,3128,script-lng-aud-P,prod-audible,père,../data/inputfiles/FD-F4-DIN1-01-07-2022.eaf
--,105179,108307,3128,lng-aud-P,lng-aud,père,../data/inputfiles/FD-F4-DIN1-01-07-2022.eaf
--,105179,108307,3128,interloc-lng-aud-P,INTERLOC,père,../data/inputfiles/FD-F4-DIN1-01-07-2022.eaf
fra,108307,110145,1838,lng-aud-P,lng-aud,père,../data/inputfiles/FD-F4-DIN1-01-07-2022.eaf
+< xx .,108307,110145,1838,script-lng-aud-P,prod-audible,père,../data/inputfiles/FD-F4-DIN1-01-07-2022.eaf
1-Eb,108307,110145,1838,interloc-lng-aud-P,INTERLOC,père,../data/inputfiles/FD-F4-DIN1-01-07-2022.eaf
--,110145,157481,47336,script-lng-aud-P,prod-audible,père,../data/inputfiles/FD-F4-DIN1-01-07-2022.eaf
--,110145,157481,47336,interloc-lng-aud-P,INTERLOC,père,../data/inputfiles/FD-F4-DIN1-01-07-2022.eaf
--,110145,157481,47336,lng-aud-P,lng-aud,père,../data/inputfiles/FD-F4-DIN1-01-07-2022.eaf
--,122110,128700,6590,act-vis-P,act-vis,père,../data/inputfiles/FD-F4-DIN1-01-07-2022.eaf
non-din,128700,133530,4830,act-vis-P,act-vis,père,../data/inputfiles/FD-F4-DIN1-01-07-2022.eaf
--,133530,418747,285217,act-vis-P,act-vis,père,../data/inputfiles/FD-F4-DIN1-01-07-2022.eaf
d'accord .,157481,158475,994,script-lng-aud-P,prod-audible,père,../data/inputfiles/FD-F4-DIN1-01-07-2022.eaf
1-Eb,157481,158475,994,interloc-lng-aud-P,INTERLOC,père,../data/inputfiles/FD-F4-DIN1-01-07-2022.eaf
fra,157481,158475,994,lng-aud-P,lng-aud,père,../data/inputfiles/FD-F4-DIN1-01-07-2022.eaf
--,158475,166048,7573,script-lng-aud-P,prod-audible,père,../data/inputfiles/FD-F4-DIN1-01-07-2022.eaf
--,158475,166048,7573,interloc-lng-aud-P,INTERLOC,père,../data/inputfiles/FD-F4-DIN1-01-07-2022.eaf
--,158475,166048,7573,lng-aud-P,lng-aud,père,../data/inputfiles/FD-F4-DIN1-01-07-2022.eaf
fra,166048,168431,2383,lng-aud-P,lng-aud,père,../data/inputfiles/FD-F4-DIN1-01-07-2022.eaf
+< oui il est resté avec Jocelyne .,166048,168431,2383,script-lng-aud-P,prod-audible,père,../data/inputfiles/FD-F4-DIN1-01-07-2022.eaf
1-M,166048,168431,2383,interloc-lng-aud-P,INTERLOC,père,../data/inputfiles/FD-F4-DIN1-01-07-2022.eaf
--,168431,250412,81981,script-lng-aud-P,prod-audible,père,../data/inputfiles/FD-F4-DIN1-01-07-2022.eaf
--,168431,250412,81981,interloc-lng-aud-P,INTERLOC,père,../data/inputfiles/FD-F4-DIN1-01-07-2022.eaf
--,168431,250412,81981,lng-aud-P,lng-aud,père,../data/inputfiles/FD-F4-DIN1-01-07-2022.eaf
fra,250412,253112,2700,lng-aud-P,lng-aud,père,../data/inputfiles/FD-F4-DIN1-01-07-2022.eaf
arrête tu vas en mettre plein ta bouche .,250412,253112,2700,script-lng-aud-P,prod-audible,père,../data/inputfiles/FD-F4-DIN1-01-07-2022.eaf
1-Ea,250412,253112,2700,interloc-lng-aud-P,INTERLOC,père,../data/inputfiles/FD-F4-DIN1-01-07-2022.eaf
--,253112,255398,2286,lng-aud-P,lng-aud,père,../data/inputfiles/FD-F4-DIN1-01-07-2022.eaf
--,253112,255398,2286,interloc-lng-aud-P,INTERLOC,père,../data/inputfiles/FD-F4-DIN1-01-07-2022.eaf
--,253112,255398,2286,script-lng-aud-P,prod-audible,père,../data/inputfiles/FD-F4-DIN1-01-07-2022.eaf
+< oui mets les dans ton assiette si t(u) en veux .,255398,258055,2657,script-lng-aud-P,prod-audible,père,../data/inputfiles/FD-F4-DIN1-01-07-2022.eaf
fra,255398,258055,2657,lng-aud-P,lng-aud,père,../data/inputfiles/FD-F4-DIN1-01-07-2022.eaf
1-Ea,255398,258055,2657,interloc-lng-aud-P,INTERLOC,père,../data/inputfiles/FD-F4-DIN1-01-07-2022.eaf
fra,258055,260255,2200,lng-aud-P,lng-aud,père,../data/inputfiles/FD-F4-DIN1-01-07-2022.eaf
1-Ea,258055,260255,2200,interloc-lng-aud-P,INTERLOC,père,../data/inputfiles/FD-F4-DIN1-01-07-2022.eaf
<ça c'est un nouveau jeu ça encore> [=! sourit] .,258055,260255,2200,script-lng-aud-P,prod-audible,père,../data/inputfiles/FD-F4-DIN1-01-07-2022.eaf
--,260255,298412,38157,script-lng-aud-P,prod-audible,père,../data/inputfiles/FD-F4-DIN1-01-07-2022.eaf
--,260255,298412,38157,lng-aud-P,lng-aud,père,../data/inputfiles/FD-F4-DIN1-01-07-2022.eaf
--,260255,298412,38157,interloc-lng-aud-P,INTERLOC,père,../data/inputfiles/FD-F4-DIN1-01-07-2022.eaf
fra,298412,299309,897,lng-aud-P,lng-aud,père,../data/inputfiles/FD-F4-DIN1-01-07-2022.eaf
arrête .,298412,299309,897,script-lng-aud-P,prod-audible,père,../data/inputfiles/FD-F4-DIN1-01-07-2022.eaf
1-Ea,298412,299309,897,interloc-lng-aud-P,INTERLOC,père,../data/inputfiles/FD-F4-DIN1-01-07-2022.eaf
ta blague est drôle une fois après c'est fini .,299309,301565,2256,script-lng-aud-P,prod-audible,père,../data/inputfiles/FD-F4-DIN1-01-07-2022.eaf
1-Ea,299309,301565,2256,interloc-lng-aud-P,INTERLOC,père,../data/inputfiles/FD-F4-DIN1-01-07-2022.eaf
fra,299309,301565,2256,lng-aud-P,lng-aud,père,../data/inputfiles/FD-F4-DIN1-01-07-2022.eaf
--,301565,329238,27673,lng-aud-P,lng-aud,père,../data/inputfiles/FD-F4-DIN1-01-07-2022.eaf
--,301565,329238,27673,script-lng-aud-P,prod-audible,père,../data/inputfiles/FD-F4-DIN1-01-07-2022.eaf
--,301565,329238,27673,interloc-lng-aud-P,INTERLOC,père,../data/inputfiles/FD-F4-DIN1-01-07-2022.eaf
1-Ea,329238,331440,2202,interloc-lng-aud-P,INTERLOC,père,../data/inputfiles/FD-F4-DIN1-01-07-2022.eaf
bon c'est la dernière fois qu(e) j(e) te l(e) dis .,329238,331440,2202,script-lng-aud-P,prod-audible,père,../data/inputfiles/FD-F4-DIN1-01-07-2022.eaf
fra,329238,331440,2202,lng-aud-P,lng-aud,père,../data/inputfiles/FD-F4-DIN1-01-07-2022.eaf
--,331440,333785,2345,lng-aud-P,lng-aud,père,../data/inputfiles/FD-F4-DIN1-01-07-2022.eaf
--,331440,333785,2345,interloc-lng-aud-P,INTERLOC,père,../data/inputfiles/FD-F4-DIN1-01-07-2022.eaf
--,331440,333785,2345,script-lng-aud-P,prod-audible,père,../data/inputfiles/FD-F4-DIN1-01-07-2022.eaf
1-Ea,333785,335050,1265,interloc-lng-aud-P,INTERLOC,père,../data/inputfiles/FD-F4-DIN1-01-07-2022.eaf
là ça m(e) fait plus rire du tout !,333785,335050,1265,script-lng-aud-P,prod-audible,père,../data/inputfiles/FD-F4-DIN1-01-07-2022.eaf
fra,333785,335050,1265,lng-aud-P,lng-aud,père,../data/inputfiles/FD-F4-DIN1-01-07-2022.eaf
tu vois y+a un moment donné t(u) approches la bêtise quoi .,335050,337669,2619,script-lng-aud-P,prod-audible,père,../data/inputfiles/FD-F4-DIN1-01-07-2022.eaf
1-Ea,335050,337669,2619,interloc-lng-aud-P,INTERLOC,père,../data/inputfiles/FD-F4-DIN1-01-07-2022.eaf
fra,335050,337669,2619,lng-aud-P,lng-aud,père,../data/inputfiles/FD-F4-DIN1-01-07-2022.eaf
<là tu la frôles énormément> [=! sourit] .,337669,339837,2168,script-lng-aud-P,prod-audible,père,../data/inputfiles/FD-F4-DIN1-01-07-2022.eaf
1-Ea,337669,339837,2168,interloc-lng-aud-P,INTERLOC,père,../data/inputfiles/FD-F4-DIN1-01-07-2022.eaf
fra,337669,339837,2168,lng-aud-P,lng-aud,père,../data/inputfiles/FD-F4-DIN1-01-07-2022.eaf
--,339837,342357,2520,script-lng-aud-P,prod-audible,père,../data/inputfiles/FD-F4-DIN1-01-07-2022.eaf
--,339837,342357,2520,interloc-lng-aud-P,INTERLOC,père,../data/inputfiles/FD-F4-DIN1-01-07-2022.eaf
--,339837,342357,2520,lng-aud-P,lng-aud,père,../data/inputfiles/FD-F4-DIN1-01-07-2022.eaf
fra,342357,343842,1485,lng-aud-P,lng-aud,père,../data/inputfiles/FD-F4-DIN1-01-07-2022.eaf
non arrête .,342357,343842,1485,script-lng-aud-P,prod-audible,père,../data/inputfiles/FD-F4-DIN1-01-07-2022.eaf
1-Ea,342357,343842,1485,interloc-lng-aud-P,INTERLOC,père,../data/inputfiles/FD-F4-DIN1-01-07-2022.eaf
1-M,343842,346192,2350,interloc-lng-aud-P,INTERLOC,père,../data/inputfiles/FD-F4-DIN1-01-07-2022.eaf
fra,343842,346192,2350,lng-aud-P,lng-aud,père,../data/inputfiles/FD-F4-DIN1-01-07-2022.eaf
éloigne les tomates de [/] de Lucien .,343842,346192,2350,script-lng-aud-P,prod-audible,père,../data/inputfiles/FD-F4-DIN1-01-07-2022.eaf
--,346192,382836,36644,interloc-lng-aud-P,INTERLOC,père,../data/inputfiles/FD-F4-DIN1-01-07-2022.eaf
--,346192,382836,36644,lng-aud-P,lng-aud,père,../data/inputfiles/FD-F4-DIN1-01-07-2022.eaf
--,346192,382836,36644,script-lng-aud-P,prod-audible,père,../data/inputfiles/FD-F4-DIN1-01-07-2022.eaf
1-Eb,382836,384942,2106,interloc-lng-aud-P,INTERLOC,père,../data/inputfiles/FD-F4-DIN1-01-07-2022.eaf
"+, et t(u) es allongé dans ton siège là .",382836,384942,2106,script-lng-aud-P,prod-audible,père,../data/inputfiles/FD-F4-DIN1-01-07-2022.eaf
fra,382836,384942,2106,lng-aud-P,lng-aud,père,../data/inputfiles/FD-F4-DIN1-01-07-2022.eaf
--,384942,450858,65916,interloc-lng-aud-P,INTERLOC,père,../data/inputfiles/FD-F4-DIN1-01-07-2022.eaf
--,384942,450858,65916,script-lng-aud-P,prod-audible,père,../data/inputfiles/FD-F4-DIN1-01-07-2022.eaf
--,384942,450858,65916,lng-aud-P,lng-aud,père,../data/inputfiles/FD-F4-DIN1-01-07-2022.eaf
din,418747,420492,1745,act-vis-P,act-vis,père,../data/inputfiles/FD-F4-DIN1-01-07-2022.eaf
0-self,418747,420492,1745,interact-act-vis-P,INTERLOC,père,../data/inputfiles/FD-F4-DIN1-01-07-2022.eaf
--,420492,441600,21108,act-vis-P,act-vis,père,../data/inputfiles/FD-F4-DIN1-01-07-2022.eaf
--,420492,511310,90818,interact-act-vis-P,INTERLOC,père,../data/inputfiles/FD-F4-DIN1-01-07-2022.eaf
din,441600,456520,14920,act-vis-P,act-vis,père,../data/inputfiles/FD-F4-DIN1-01-07-2022.eaf
1-Ea,450858,451917,1059,interloc-lng-aud-P,INTERLOC,père,../data/inputfiles/FD-F4-DIN1-01-07-2022.eaf
le marron ?,450858,451917,1059,script-lng-aud-P,prod-audible,père,../data/inputfiles/FD-F4-DIN1-01-07-2022.eaf
fra,450858,451917,1059,lng-aud-P,lng-aud,père,../data/inputfiles/FD-F4-DIN1-01-07-2022.eaf
--,451917,474155,22238,script-lng-aud-P,prod-audible,père,../data/inputfiles/FD-F4-DIN1-01-07-2022.eaf
--,451917,474155,22238,lng-aud-P,lng-aud,père,../data/inputfiles/FD-F4-DIN1-01-07-2022.eaf
--,451917,474155,22238,interloc-lng-aud-P,INTERLOC,père,../data/inputfiles/FD-F4-DIN1-01-07-2022.eaf
--,456520,511310,54790,act-vis-P,act-vis,père,../data/inputfiles/FD-F4-DIN1-01-07-2022.eaf
fra,474155,476862,2707,lng-aud-P,lng-aud,père,../data/inputfiles/FD-F4-DIN1-01-07-2022.eaf
1-Ea,474155,476862,2707,interloc-lng-aud-P,INTERLOC,père,../data/inputfiles/FD-F4-DIN1-01-07-2022.eaf
+< <très bien> [/] <très bien> [/] <très bien> [/] très bien xx .,474155,476862,2707,script-lng-aud-P,prod-audible,père,../data/inputfiles/FD-F4-DIN1-01-07-2022.eaf
--,476862,499851,22989,lng-aud-P,lng-aud,père,../data/inputfiles/FD-F4-DIN1-01-07-2022.eaf
--,476862,499851,22989,interloc-lng-aud-P,INTERLOC,père,../data/inputfiles/FD-F4-DIN1-01-07-2022.eaf
--,476862,499851,22989,script-lng-aud-P,prod-audible,père,../data/inputfiles/FD-F4-DIN1-01-07-2022.eaf
fra,499851,502030,2179,lng-aud-P,lng-aud,père,../data/inputfiles/FD-F4-DIN1-01-07-2022.eaf
1-Eb,499851,502030,2179,interloc-lng-aud-P,INTERLOC,père,../data/inputfiles/FD-F4-DIN1-01-07-2022.eaf
+< mais on va prendre aussi l' autre .,499851,502030,2179,script-lng-aud-P,prod-audible,père,../data/inputfiles/FD-F4-DIN1-01-07-2022.eaf
--,502030,542018,39988,script-lng-aud-P,prod-audible,père,../data/inputfiles/FD-F4-DIN1-01-07-2022.eaf
--,502030,542018,39988,interloc-lng-aud-P,INTERLOC,père,../data/inputfiles/FD-F4-DIN1-01-07-2022.eaf
--,502030,542018,39988,lng-aud-P,lng-aud,père,../data/inputfiles/FD-F4-DIN1-01-07-2022.eaf
1-Eb,511310,545820,34510,interact-act-vis-P,INTERLOC,père,../data/inputfiles/FD-F4-DIN1-01-07-2022.eaf
din,511310,545820,34510,act-vis-P,act-vis,père,../data/inputfiles/FD-F4-DIN1-01-07-2022.eaf
1-M,542018,545427,3409,interloc-lng-aud-P,INTERLOC,père,../data/inputfiles/FD-F4-DIN1-01-07-2022.eaf
fra,542018,545427,3409,lng-aud-P,lng-aud,père,../data/inputfiles/FD-F4-DIN1-01-07-2022.eaf
+< donc y avait eu la collation le livre .,542018,545427,3409,script-lng-aud-P,prod-audible,père,../data/inputfiles/FD-F4-DIN1-01-07-2022.eaf
--,545427,573381,27954,script-lng-aud-P,prod-audible,père,../data/inputfiles/FD-F4-DIN1-01-07-2022.eaf
--,545427,573381,27954,lng-aud-P,lng-aud,père,../data/inputfiles/FD-F4-DIN1-01-07-2022.eaf
--,545427,573381,27954,interloc-lng-aud-P,INTERLOC,père,../data/inputfiles/FD-F4-DIN1-01-07-2022.eaf
--,545820,630500,84680,act-vis-P,act-vis,père,../data/inputfiles/FD-F4-DIN1-01-07-2022.eaf
--,545820,1082280,536460,interact-act-vis-P,INTERLOC,père,../data/inputfiles/FD-F4-DIN1-01-07-2022.eaf
ah bon .,573381,574329,948,script-lng-aud-P,prod-audible,père,../data/inputfiles/FD-F4-DIN1-01-07-2022.eaf
1-Eb,573381,574329,948,interloc-lng-aud-P,INTERLOC,père,../data/inputfiles/FD-F4-DIN1-01-07-2022.eaf
fra,573381,574329,948,lng-aud-P,lng-aud,père,../data/inputfiles/FD-F4-DIN1-01-07-2022.eaf
1-Eb,574329,575590,1261,interloc-lng-aud-P,INTERLOC,père,../data/inputfiles/FD-F4-DIN1-01-07-2022.eaf
ah ben super .,574329,575590,1261,script-lng-aud-P,prod-audible,père,../data/inputfiles/FD-F4-DIN1-01-07-2022.eaf
fra,574329,575590,1261,lng-aud-P,lng-aud,père,../data/inputfiles/FD-F4-DIN1-01-07-2022.eaf
1-Eb,575590,576962,1372,interloc-lng-aud-P,INTERLOC,père,../data/inputfiles/FD-F4-DIN1-01-07-2022.eaf
et la collation ?,575590,576962,1372,script-lng-aud-P,prod-audible,père,../data/inputfiles/FD-F4-DIN1-01-07-2022.eaf
fra,575590,576962,1372,lng-aud-P,lng-aud,père,../data/inputfiles/FD-F4-DIN1-01-07-2022.eaf
--,576962,614889,37927,lng-aud-P,lng-aud,père,../data/inputfiles/FD-F4-DIN1-01-07-2022.eaf
--,576962,614889,37927,interloc-lng-aud-P,INTERLOC,père,../data/inputfiles/FD-F4-DIN1-01-07-2022.eaf
--,576962,614889,37927,script-lng-aud-P,prod-audible,père,../data/inputfiles/FD-F4-DIN1-01-07-2022.eaf
1-Eb,614889,616829,1940,interloc-lng-aud-P,INTERLOC,père,../data/inputfiles/FD-F4-DIN1-01-07-2022.eaf
fra,614889,616829,1940,lng-aud-P,lng-aud,père,../data/inputfiles/FD-F4-DIN1-01-07-2022.eaf
mets pas tout .,614889,616829,1940,script-lng-aud-P,prod-audible,père,../data/inputfiles/FD-F4-DIN1-01-07-2022.eaf
--,616829,726020,109191,script-lng-aud-P,prod-audible,père,../data/inputfiles/FD-F4-DIN1-01-07-2022.eaf
--,616829,726020,109191,interloc-lng-aud-P,INTERLOC,père,../data/inputfiles/FD-F4-DIN1-01-07-2022.eaf
--,616829,726020,109191,lng-aud-P,lng-aud,père,../data/inputfiles/FD-F4-DIN1-01-07-2022.eaf
non-din,630500,632690,2190,act-vis-P,act-vis,père,../data/inputfiles/FD-F4-DIN1-01-07-2022.eaf
--,632690,656730,24040,act-vis-P,act-vis,père,../data/inputfiles/FD-F4-DIN1-01-07-2022.eaf
non-din,656730,663370,6640,act-vis-P,act-vis,père,../data/inputfiles/FD-F4-DIN1-01-07-2022.eaf
--,663370,714000,50630,act-vis-P,act-vis,père,../data/inputfiles/FD-F4-DIN1-01-07-2022.eaf
non-din,714000,716850,2850,act-vis-P,act-vis,père,../data/inputfiles/FD-F4-DIN1-01-07-2022.eaf
--,716850,797760,80910,act-vis-P,act-vis,père,../data/inputfiles/FD-F4-DIN1-01-07-2022.eaf
fra,726020,727449,1429,lng-aud-P,lng-aud,père,../data/inputfiles/FD-F4-DIN1-01-07-2022.eaf
quoi mais il a quel âge ?,726020,727449,1429,script-lng-aud-P,prod-audible,père,../data/inputfiles/FD-F4-DIN1-01-07-2022.eaf
1-Ea,726020,727449,1429,interloc-lng-aud-P,INTERLOC,père,../data/inputfiles/FD-F4-DIN1-01-07-2022.eaf
--,727449,734458,7009,interloc-lng-aud-P,INTERLOC,père,../data/inputfiles/FD-F4-DIN1-01-07-2022.eaf
--,727449,734458,7009,script-lng-aud-P,prod-audible,père,../data/inputfiles/FD-F4-DIN1-01-07-2022.eaf
--,727449,734458,7009,lng-aud-P,lng-aud,père,../data/inputfiles/FD-F4-DIN1-01-07-2022.eaf
1-Ea,734458,736917,2459,interloc-lng-aud-P,INTERLOC,père,../data/inputfiles/FD-F4-DIN1-01-07-2022.eaf
et les échecs euh c'était c(e) soir ?,734458,736917,2459,script-lng-aud-P,prod-audible,père,../data/inputfiles/FD-F4-DIN1-01-07-2022.eaf
fra,734458,736917,2459,lng-aud-P,lng-aud,père,../data/inputfiles/FD-F4-DIN1-01-07-2022.eaf
--,736917,801009,64092,interloc-lng-aud-P,INTERLOC,père,../data/inputfiles/FD-F4-DIN1-01-07-2022.eaf
--,736917,801009,64092,script-lng-aud-P,prod-audible,père,../data/inputfiles/FD-F4-DIN1-01-07-2022.eaf
--,736917,801009,64092,lng-aud-P,lng-aud,père,../data/inputfiles/FD-F4-DIN1-01-07-2022.eaf
din,797760,822020,24260,act-vis-P,act-vis,père,../data/inputfiles/FD-F4-DIN1-01-07-2022.eaf
fra,801009,802477,1468,lng-aud-P,lng-aud,père,../data/inputfiles/FD-F4-DIN1-01-07-2022.eaf
1-Ea,801009,802477,1468,interloc-lng-aud-P,INTERLOC,père,../data/inputfiles/FD-F4-DIN1-01-07-2022.eaf
i(l) faut faire un cours organisé .,801009,802477,1468,script-lng-aud-P,prod-audible,père,../data/inputfiles/FD-F4-DIN1-01-07-2022.eaf
fra,802477,804445,1968,lng-aud-P,lng-aud,père,../data/inputfiles/FD-F4-DIN1-01-07-2022.eaf
1-Ea,802477,804445,1968,interloc-lng-aud-P,INTERLOC,père,../data/inputfiles/FD-F4-DIN1-01-07-2022.eaf
faut qu(e) tu m' apprennes des trucs .,802477,804445,1968,script-lng-aud-P,prod-audible,père,../data/inputfiles/FD-F4-DIN1-01-07-2022.eaf
--,804445,811064,6619,script-lng-aud-P,prod-audible,père,../data/inputfiles/FD-F4-DIN1-01-07-2022.eaf
--,804445,811064,6619,interloc-lng-aud-P,INTERLOC,père,../data/inputfiles/FD-F4-DIN1-01-07-2022.eaf
--,804445,811064,6619,lng-aud-P,lng-aud,père,../data/inputfiles/FD-F4-DIN1-01-07-2022.eaf
+< toi t(u) es confirmé ?,811064,812290,1226,script-lng-aud-P,prod-audible,père,../data/inputfiles/FD-F4-DIN1-01-07-2022.eaf
1-Ea,811064,812290,1226,interloc-lng-aud-P,INTERLOC,père,../data/inputfiles/FD-F4-DIN1-01-07-2022.eaf
fra,811064,812290,1226,lng-aud-P,lng-aud,père,../data/inputfiles/FD-F4-DIN1-01-07-2022.eaf
--,812290,819403,7113,lng-aud-P,lng-aud,père,../data/inputfiles/FD-F4-DIN1-01-07-2022.eaf
--,812290,819403,7113,interloc-lng-aud-P,INTERLOC,père,../data/inputfiles/FD-F4-DIN1-01-07-2022.eaf
--,812290,819403,7113,script-lng-aud-P,prod-audible,père,../data/inputfiles/FD-F4-DIN1-01-07-2022.eaf
fra,819403,820785,1382,lng-aud-P,lng-aud,père,../data/inputfiles/FD-F4-DIN1-01-07-2022.eaf
1-Ea,819403,820785,1382,interloc-lng-aud-P,INTERLOC,père,../data/inputfiles/FD-F4-DIN1-01-07-2022.eaf
mais j' ai eu du mal .,819403,820785,1382,script-lng-aud-P,prod-audible,père,../data/inputfiles/FD-F4-DIN1-01-07-2022.eaf
--,820785,852816,32031,interloc-lng-aud-P,INTERLOC,père,../data/inputfiles/FD-F4-DIN1-01-07-2022.eaf
--,820785,852816,32031,script-lng-aud-P,prod-audible,père,../data/inputfiles/FD-F4-DIN1-01-07-2022.eaf
--,820785,852816,32031,lng-aud-P,lng-aud,père,../data/inputfiles/FD-F4-DIN1-01-07-2022.eaf
--,822020,1042690,220670,act-vis-P,act-vis,père,../data/inputfiles/FD-F4-DIN1-01-07-2022.eaf
génial .,852816,853238,422,script-lng-aud-P,prod-audible,père,../data/inputfiles/FD-F4-DIN1-01-07-2022.eaf
1-Ea,852816,853238,422,interloc-lng-aud-P,INTERLOC,père,../data/inputfiles/FD-F4-DIN1-01-07-2022.eaf
fra,852816,853238,422,lng-aud-P,lng-aud,père,../data/inputfiles/FD-F4-DIN1-01-07-2022.eaf
fra,853238,854311,1073,lng-aud-P,lng-aud,père,../data/inputfiles/FD-F4-DIN1-01-07-2022.eaf
avec quel couteau ?,853238,854311,1073,script-lng-aud-P,prod-audible,père,../data/inputfiles/FD-F4-DIN1-01-07-2022.eaf
1-Ea,853238,854311,1073,interloc-lng-aud-P,INTERLOC,père,../data/inputfiles/FD-F4-DIN1-01-07-2022.eaf
--,854311,926926,72615,interloc-lng-aud-P,INTERLOC,père,../data/inputfiles/FD-F4-DIN1-01-07-2022.eaf
--,854311,926926,72615,lng-aud-P,lng-aud,père,../data/inputfiles/FD-F4-DIN1-01-07-2022.eaf
--,854311,926926,72615,script-lng-aud-P,prod-audible,père,../data/inputfiles/FD-F4-DIN1-01-07-2022.eaf
non ?,926926,927660,734,script-lng-aud-P,prod-audible,père,../data/inputfiles/FD-F4-DIN1-01-07-2022.eaf
1-M,926926,927660,734,interloc-lng-aud-P,INTERLOC,père,../data/inputfiles/FD-F4-DIN1-01-07-2022.eaf
fra,926926,927660,734,lng-aud-P,lng-aud,père,../data/inputfiles/FD-F4-DIN1-01-07-2022.eaf
--,927660,931587,3927,lng-aud-P,lng-aud,père,../data/inputfiles/FD-F4-DIN1-01-07-2022.eaf
--,927660,931587,3927,interloc-lng-aud-P,INTERLOC,père,../data/inputfiles/FD-F4-DIN1-01-07-2022.eaf
--,927660,931587,3927,script-lng-aud-P,prod-audible,père,../data/inputfiles/FD-F4-DIN1-01-07-2022.eaf
fra,931587,935249,3662,lng-aud-P,lng-aud,père,../data/inputfiles/FD-F4-DIN1-01-07-2022.eaf
1-M,931587,935249,3662,interloc-lng-aud-P,INTERLOC,père,../data/inputfiles/FD-F4-DIN1-01-07-2022.eaf
ah ouais mais c'est vrai c'est l(e) mercredi en fait qu(e) tu fais avec lui les +/.,931587,935249,3662,script-lng-aud-P,prod-audible,père,../data/inputfiles/FD-F4-DIN1-01-07-2022.eaf
--,935249,939816,4567,lng-aud-P,lng-aud,père,../data/inputfiles/FD-F4-DIN1-01-07-2022.eaf
--,935249,939816,4567,interloc-lng-aud-P,INTERLOC,père,../data/inputfiles/FD-F4-DIN1-01-07-2022.eaf
--,935249,939816,4567,script-lng-aud-P,prod-audible,père,../data/inputfiles/FD-F4-DIN1-01-07-2022.eaf
réfléchis bien .,939816,940897,1081,script-lng-aud-P,prod-audible,père,../data/inputfiles/FD-F4-DIN1-01-07-2022.eaf
1-Ea,939816,940897,1081,interloc-lng-aud-P,INTERLOC,père,../data/inputfiles/FD-F4-DIN1-01-07-2022.eaf
fra,939816,940897,1081,lng-aud-P,lng-aud,père,../data/inputfiles/FD-F4-DIN1-01-07-2022.eaf
--,940897,1006959,66062,lng-aud-P,lng-aud,père,../data/inputfiles/FD-F4-DIN1-01-07-2022.eaf
--,940897,1006959,66062,script-lng-aud-P,prod-audible,père,../data/inputfiles/FD-F4-DIN1-01-07-2022.eaf
--,940897,1006959,66062,interloc-lng-aud-P,INTERLOC,père,../data/inputfiles/FD-F4-DIN1-01-07-2022.eaf
trois heures dix .,1006959,1008174,1215,script-lng-aud-P,prod-audible,père,../data/inputfiles/FD-F4-DIN1-01-07-2022.eaf
1-Ea,1006959,1008174,1215,interloc-lng-aud-P,INTERLOC,père,../data/inputfiles/FD-F4-DIN1-01-07-2022.eaf
fra,1006959,1008174,1215,lng-aud-P,lng-aud,père,../data/inputfiles/FD-F4-DIN1-01-07-2022.eaf
--,1008174,1043816,35642,lng-aud-P,lng-aud,père,../data/inputfiles/FD-F4-DIN1-01-07-2022.eaf
--,1008174,1043816,35642,interloc-lng-aud-P,INTERLOC,père,../data/inputfiles/FD-F4-DIN1-01-07-2022.eaf
--,1008174,1043816,35642,script-lng-aud-P,prod-audible,père,../data/inputfiles/FD-F4-DIN1-01-07-2022.eaf
non-din,1042690,1046970,4280,act-vis-P,act-vis,père,../data/inputfiles/FD-F4-DIN1-01-07-2022.eaf
1-Eb,1043816,1044799,983,interloc-lng-aud-P,INTERLOC,père,../data/inputfiles/FD-F4-DIN1-01-07-2022.eaf
+< tu vas faire dodo là .,1043816,1044799,983,script-lng-aud-P,prod-audible,père,../data/inputfiles/FD-F4-DIN1-01-07-2022.eaf
fra,1043816,1044799,983,lng-aud-P,lng-aud,père,../data/inputfiles/FD-F4-DIN1-01-07-2022.eaf
--,1044799,1085534,40735,interloc-lng-aud-P,INTERLOC,père,../data/inputfiles/FD-F4-DIN1-01-07-2022.eaf
--,1044799,1085534,40735,script-lng-aud-P,prod-audible,père,../data/inputfiles/FD-F4-DIN1-01-07-2022.eaf
--,1044799,1085534,40735,lng-aud-P,lng-aud,père,../data/inputfiles/FD-F4-DIN1-01-07-2022.eaf
--,1046970,1082280,35310,act-vis-P,act-vis,père,../data/inputfiles/FD-F4-DIN1-01-07-2022.eaf
0-self,1082280,1111370,29090,interact-act-vis-P,INTERLOC,père,../data/inputfiles/FD-F4-DIN1-01-07-2022.eaf
din,1082280,1111370,29090,act-vis-P,act-vis,père,../data/inputfiles/FD-F4-DIN1-01-07-2022.eaf
fra,1085534,1086894,1360,lng-aud-P,lng-aud,père,../data/inputfiles/FD-F4-DIN1-01-07-2022.eaf
+< xx attends i(l) va aller l(e) chercher .,1085534,1086894,1360,script-lng-aud-P,prod-audible,père,../data/inputfiles/FD-F4-DIN1-01-07-2022.eaf
1-M,1085534,1086894,1360,interloc-lng-aud-P,INTERLOC,père,../data/inputfiles/FD-F4-DIN1-01-07-2022.eaf
--,1086894,1142659,55765,interloc-lng-aud-P,INTERLOC,père,../data/inputfiles/FD-F4-DIN1-01-07-2022.eaf
--,1086894,1142659,55765,script-lng-aud-P,prod-audible,père,../data/inputfiles/FD-F4-DIN1-01-07-2022.eaf
--,1086894,1142659,55765,lng-aud-P,lng-aud,père,../data/inputfiles/FD-F4-DIN1-01-07-2022.eaf
--,1111370,1169060,57690,interact-act-vis-P,INTERLOC,père,../data/inputfiles/FD-F4-DIN1-01-07-2022.eaf
--,1111370,1169060,57690,act-vis-P,act-vis,père,../data/inputfiles/FD-F4-DIN1-01-07-2022.eaf
fra,1142659,1143825,1166,lng-aud-P,lng-aud,père,../data/inputfiles/FD-F4-DIN1-01-07-2022.eaf
si .,1142659,1143825,1166,script-lng-aud-P,prod-audible,père,../data/inputfiles/FD-F4-DIN1-01-07-2022.eaf
1-Ea,1142659,1143825,1166,interloc-lng-aud-P,INTERLOC,père,../data/inputfiles/FD-F4-DIN1-01-07-2022.eaf
--,1143825,1323809,179984,lng-aud-P,lng-aud,père,../data/inputfiles/FD-F4-DIN1-01-07-2022.eaf
--,1143825,1323809,179984,script-lng-aud-P,prod-audible,père,../data/inputfiles/FD-F4-DIN1-01-07-2022.eaf
--,1143825,1323809,179984,interloc-lng-aud-P,INTERLOC,père,../data/inputfiles/FD-F4-DIN1-01-07-2022.eaf
din,1169060,1188950,19890,act-vis-P,act-vis,père,../data/inputfiles/FD-F4-DIN1-01-07-2022.eaf
0-self,1169060,1188950,19890,interact-act-vis-P,INTERLOC,père,../data/inputfiles/FD-F4-DIN1-01-07-2022.eaf
--,1188950,1344266,155316,interact-act-vis-P,INTERLOC,père,../data/inputfiles/FD-F4-DIN1-01-07-2022.eaf
--,1188950,1344266,155316,act-vis-P,act-vis,père,../data/inputfiles/FD-F4-DIN1-01-07-2022.eaf
xxx .,1323809,1326734,2925,script-lng-aud-P,prod-audible,père,../data/inputfiles/FD-F4-DIN1-01-07-2022.eaf
1-Ea,1323809,1326734,2925,interloc-lng-aud-P,INTERLOC,père,../data/inputfiles/FD-F4-DIN1-01-07-2022.eaf
ind,1323809,1326734,2925,lng-aud-P,lng-aud,père,../data/inputfiles/FD-F4-DIN1-01-07-2022.eaf
--,1326734,1381009,54275,lng-aud-P,lng-aud,père,../data/inputfiles/FD-F4-DIN1-01-07-2022.eaf
--,1326734,1381009,54275,interloc-lng-aud-P,INTERLOC,père,../data/inputfiles/FD-F4-DIN1-01-07-2022.eaf
--,1326734,1381009,54275,script-lng-aud-P,prod-audible,père,../data/inputfiles/FD-F4-DIN1-01-07-2022.eaf
0-self,1344266,1352350,8084,interact-act-vis-P,INTERLOC,père,../data/inputfiles/FD-F4-DIN1-01-07-2022.eaf
din,1344266,1352350,8084,act-vis-P,act-vis,père,../data/inputfiles/FD-F4-DIN1-01-07-2022.eaf
0-self,1352350,1416140,63790,interact-act-vis-P,INTERLOC,père,../data/inputfiles/FD-F4-DIN1-01-07-2022.eaf
non-din,1352350,1416140,63790,act-vis-P,act-vis,père,../data/inputfiles/FD-F4-DIN1-01-07-2022.eaf
et après i(l) travaille avec Eric pour proposer +...,1381009,1385729,4720,script-lng-aud-P,prod-audible,père,../data/inputfiles/FD-F4-DIN1-01-07-2022.eaf
fra,1381009,1385729,4720,lng-aud-P,lng-aud,père,../data/inputfiles/FD-F4-DIN1-01-07-2022.eaf
1-Ea,1381009,1385729,4720,interloc-lng-aud-P,INTERLOC,père,../data/inputfiles/FD-F4-DIN1-01-07-2022.eaf
1-Ea,1385729,1387364,1635,interloc-lng-aud-P,INTERLOC,père,../data/inputfiles/FD-F4-DIN1-01-07-2022.eaf
"+, aux fabricants d' alcool +...",1385729,1387364,1635,script-lng-aud-P,prod-audible,père,../data/inputfiles/FD-F4-DIN1-01-07-2022.eaf
fra,1385729,1387364,1635,lng-aud-P,lng-aud,père,../data/inputfiles/FD-F4-DIN1-01-07-2022.eaf
--,1387364,1410587,23223,lng-aud-P,lng-aud,père,../data/inputfiles/FD-F4-DIN1-01-07-2022.eaf
--,1387364,1410587,23223,interloc-lng-aud-P,INTERLOC,père,../data/inputfiles/FD-F4-DIN1-01-07-2022.eaf
--,1387364,1410587,23223,script-lng-aud-P,prod-audible,père,../data/inputfiles/FD-F4-DIN1-01-07-2022.eaf
fra,1410587,1411579,992,lng-aud-P,lng-aud,père,../data/inputfiles/FD-F4-DIN1-01-07-2022.eaf
tu vas où ?,1410587,1411579,992,script-lng-aud-P,prod-audible,père,../data/inputfiles/FD-F4-DIN1-01-07-2022.eaf
1-Eb,1410587,1411579,992,interloc-lng-aud-P,INTERLOC,père,../data/inputfiles/FD-F4-DIN1-01-07-2022.eaf
fra,1411579,1412596,1017,lng-aud-P,lng-aud,père,../data/inputfiles/FD-F4-DIN1-01-07-2022.eaf
1-Eb,1411579,1412596,1017,interloc-lng-aud-P,INTERLOC,père,../data/inputfiles/FD-F4-DIN1-01-07-2022.eaf
tu vas où ?,1411579,1412596,1017,script-lng-aud-P,prod-audible,père,../data/inputfiles/FD-F4-DIN1-01-07-2022.eaf
--,1412596,1528742,116146,script-lng-aud-P,prod-audible,père,../data/inputfiles/FD-F4-DIN1-01-07-2022.eaf
--,1412596,1528742,116146,interloc-lng-aud-P,INTERLOC,père,../data/inputfiles/FD-F4-DIN1-01-07-2022.eaf
--,1412596,1528742,116146,lng-aud-P,lng-aud,père,../data/inputfiles/FD-F4-DIN1-01-07-2022.eaf
din,1416140,1421678,5538,act-vis-P,act-vis,père,../data/inputfiles/FD-F4-DIN1-01-07-2022.eaf
0-self,1416140,1421678,5538,interact-act-vis-P,INTERLOC,père,../data/inputfiles/FD-F4-DIN1-01-07-2022.eaf
non-din,1421678,1426832,5154,act-vis-P,act-vis,père,../data/inputfiles/FD-F4-DIN1-01-07-2022.eaf
0-self,1421678,1426832,5154,interact-act-vis-P,INTERLOC,père,../data/inputfiles/FD-F4-DIN1-01-07-2022.eaf
0-self,1426832,1441520,14688,interact-act-vis-P,INTERLOC,père,../data/inputfiles/FD-F4-DIN1-01-07-2022.eaf
din,1426832,1441520,14688,act-vis-P,act-vis,père,../data/inputfiles/FD-F4-DIN1-01-07-2022.eaf
0-self,1441520,1481253,39733,interact-act-vis-P,INTERLOC,père,../data/inputfiles/FD-F4-DIN1-01-07-2022.eaf
din,1441520,1481253,39733,act-vis-P,act-vis,père,../data/inputfiles/FD-F4-DIN1-01-07-2022.eaf
0-self,1481253,1485612,4359,interact-act-vis-P,INTERLOC,père,../data/inputfiles/FD-F4-DIN1-01-07-2022.eaf
din/non-din,1481253,1485612,4359,act-vis-P,act-vis,père,../data/inputfiles/FD-F4-DIN1-01-07-2022.eaf
0-self,1485612,1491129,5517,interact-act-vis-P,INTERLOC,père,../data/inputfiles/FD-F4-DIN1-01-07-2022.eaf
din,1485612,1491129,5517,act-vis-P,act-vis,père,../data/inputfiles/FD-F4-DIN1-01-07-2022.eaf
0-self,1491129,1500446,9317,interact-act-vis-P,INTERLOC,père,../data/inputfiles/FD-F4-DIN1-01-07-2022.eaf
non-din,1491129,1500446,9317,act-vis-P,act-vis,père,../data/inputfiles/FD-F4-DIN1-01-07-2022.eaf
din,1500446,1528888,28442,act-vis-P,act-vis,père,../data/inputfiles/FD-F4-DIN1-01-07-2022.eaf
0-self,1500446,1528888,28442,interact-act-vis-P,INTERLOC,père,../data/inputfiles/FD-F4-DIN1-01-07-2022.eaf
arrête .,1528742,1529674,932,script-lng-aud-P,prod-audible,père,../data/inputfiles/FD-F4-DIN1-01-07-2022.eaf
fra,1528742,1529674,932,lng-aud-P,lng-aud,père,../data/inputfiles/FD-F4-DIN1-01-07-2022.eaf
1-Ea,1528742,1529674,932,interloc-lng-aud-P,INTERLOC,père,../data/inputfiles/FD-F4-DIN1-01-07-2022.eaf
1-Ea,1528888,1532979,4091,interact-act-vis-P,INTERLOC,père,../data/inputfiles/FD-F4-DIN1-01-07-2022.eaf
non-din,1528888,1532979,4091,act-vis-P,act-vis,père,../data/inputfiles/FD-F4-DIN1-01-07-2022.eaf
--,1529674,1551784,22110,lng-aud-P,lng-aud,père,../data/inputfiles/FD-F4-DIN1-01-07-2022.eaf
--,1529674,1551784,22110,script-lng-aud-P,prod-audible,père,../data/inputfiles/FD-F4-DIN1-01-07-2022.eaf
--,1529674,1551784,22110,interloc-lng-aud-P,INTERLOC,père,../data/inputfiles/FD-F4-DIN1-01-07-2022.eaf
--,1532979,1893635,360656,interact-act-vis-P,INTERLOC,père,../data/inputfiles/FD-F4-DIN1-01-07-2022.eaf
din,1532979,1583638,50659,act-vis-P,act-vis,père,../data/inputfiles/FD-F4-DIN1-01-07-2022.eaf
fra,1551784,1554562,2778,lng-aud-P,lng-aud,père,../data/inputfiles/FD-F4-DIN1-01-07-2022.eaf
1-Ea,1551784,1554562,2778,interloc-lng-aud-P,INTERLOC,père,../data/inputfiles/FD-F4-DIN1-01-07-2022.eaf
laisse le faire ça puis après i(l) va arrêter .,1551784,1554562,2778,script-lng-aud-P,prod-audible,père,../data/inputfiles/FD-F4-DIN1-01-07-2022.eaf
--,1554562,1641045,86483,lng-aud-P,lng-aud,père,../data/inputfiles/FD-F4-DIN1-01-07-2022.eaf
--,1554562,1641045,86483,interloc-lng-aud-P,INTERLOC,père,../data/inputfiles/FD-F4-DIN1-01-07-2022.eaf
--,1554562,1641045,86483,script-lng-aud-P,prod-audible,père,../data/inputfiles/FD-F4-DIN1-01-07-2022.eaf
din/non-din,1583638,1593495,9857,act-vis-P,act-vis,père,../data/inputfiles/FD-F4-DIN1-01-07-2022.eaf
din,1593495,1618090,24595,act-vis-P,act-vis,père,../data/inputfiles/FD-F4-DIN1-01-07-2022.eaf
non-din,1618090,1631874,13784,act-vis-P,act-vis,père,../data/inputfiles/FD-F4-DIN1-01-07-2022.eaf
din,1631874,1649348,17474,act-vis-P,act-vis,père,../data/inputfiles/FD-F4-DIN1-01-07-2022.eaf
1-Eb,1641045,1641715,670,interloc-lng-aud-P,INTERLOC,père,../data/inputfiles/FD-F4-DIN1-01-07-2022.eaf
arrête .,1641045,1641715,670,script-lng-aud-P,prod-audible,père,../data/inputfiles/FD-F4-DIN1-01-07-2022.eaf
fra,1641045,1641715,670,lng-aud-P,lng-aud,père,../data/inputfiles/FD-F4-DIN1-01-07-2022.eaf
--,1641715,1688110,46395,lng-aud-P,lng-aud,père,../data/inputfiles/FD-F4-DIN1-01-07-2022.eaf
--,1641715,1688110,46395,interloc-lng-aud-P,INTERLOC,père,../data/inputfiles/FD-F4-DIN1-01-07-2022.eaf
--,1641715,1688110,46395,script-lng-aud-P,prod-audible,père,../data/inputfiles/FD-F4-DIN1-01-07-2022.eaf
din/non-din,1649348,1668935,19587,act-vis-P,act-vis,père,../data/inputfiles/FD-F4-DIN1-01-07-2022.eaf
din,1668935,1685505,16570,act-vis-P,act-vis,père,../data/inputfiles/FD-F4-DIN1-01-07-2022.eaf
non-din,1685505,1717600,32095,act-vis-P,act-vis,père,../data/inputfiles/FD-F4-DIN1-01-07-2022.eaf
fra,1688110,1688825,715,lng-aud-P,lng-aud,père,../data/inputfiles/FD-F4-DIN1-01-07-2022.eaf
+< éloigne .,1688110,1688825,715,script-lng-aud-P,prod-audible,père,../data/inputfiles/FD-F4-DIN1-01-07-2022.eaf
1-Eb,1688110,1688825,715,interloc-lng-aud-P,INTERLOC,père,../data/inputfiles/FD-F4-DIN1-01-07-2022.eaf
1-Eb,1688825,1690412,1587,interloc-lng-aud-P,INTERLOC,père,../data/inputfiles/FD-F4-DIN1-01-07-2022.eaf
Gabi éloigne toi d(e) là .,1688825,1690412,1587,script-lng-aud-P,prod-audible,père,../data/inputfiles/FD-F4-DIN1-01-07-2022.eaf
fra,1688825,1690412,1587,lng-aud-P,lng-aud,père,../data/inputfiles/FD-F4-DIN1-01-07-2022.eaf
--,1690412,1698513,8101,interloc-lng-aud-P,INTERLOC,père,../data/inputfiles/FD-F4-DIN1-01-07-2022.eaf
--,1690412,1698513,8101,script-lng-aud-P,prod-audible,père,../data/inputfiles/FD-F4-DIN1-01-07-2022.eaf
--,1690412,1698513,8101,lng-aud-P,lng-aud,père,../data/inputfiles/FD-F4-DIN1-01-07-2022.eaf
fra,1698513,1700422,1909,lng-aud-P,lng-aud,père,../data/inputfiles/FD-F4-DIN1-01-07-2022.eaf
+< donc là en décembre c'est le même qu' i(l) va voir .,1698513,1700422,1909,script-lng-aud-P,prod-audible,père,../data/inputfiles/FD-F4-DIN1-01-07-2022.eaf
1-M,1698513,1700422,1909,interloc-lng-aud-P,INTERLOC,père,../data/inputfiles/FD-F4-DIN1-01-07-2022.eaf
--,1700422,1756844,56422,script-lng-aud-P,prod-audible,père,../data/inputfiles/FD-F4-DIN1-01-07-2022.eaf
--,1700422,1756844,56422,interloc-lng-aud-P,INTERLOC,père,../data/inputfiles/FD-F4-DIN1-01-07-2022.eaf
--,1700422,1756844,56422,lng-aud-P,lng-aud,père,../data/inputfiles/FD-F4-DIN1-01-07-2022.eaf
din,1717600,1781941,64341,act-vis-P,act-vis,père,../data/inputfiles/FD-F4-DIN1-01-07-2022.eaf
ind,1756844,1758972,2128,lng-aud-P,lng-aud,père,../data/inputfiles/FD-F4-DIN1-01-07-2022.eaf
1-Ea,1756844,1758972,2128,interloc-lng-aud-P,INTERLOC,père,../data/inputfiles/FD-F4-DIN1-01-07-2022.eaf
xxx .,1756844,1758972,2128,script-lng-aud-P,prod-audible,père,../data/inputfiles/FD-F4-DIN1-01-07-2022.eaf
--,1758972,1786256,27284,script-lng-aud-P,prod-audible,père,../data/inputfiles/FD-F4-DIN1-01-07-2022.eaf
--,1758972,1786256,27284,interloc-lng-aud-P,INTERLOC,père,../data/inputfiles/FD-F4-DIN1-01-07-2022.eaf
--,1758972,1786256,27284,lng-aud-P,lng-aud,père,../data/inputfiles/FD-F4-DIN1-01-07-2022.eaf
non-din,1781941,1790997,9056,act-vis-P,act-vis,père,../data/inputfiles/FD-F4-DIN1-01-07-2022.eaf
+< non mais l(e) précédent y avait des enfants .,1786256,1788965,2709,script-lng-aud-P,prod-audible,père,../data/inputfiles/FD-F4-DIN1-01-07-2022.eaf
fra,1786256,1788965,2709,lng-aud-P,lng-aud,père,../data/inputfiles/FD-F4-DIN1-01-07-2022.eaf
1-M,1786256,1788965,2709,interloc-lng-aud-P,INTERLOC,père,../data/inputfiles/FD-F4-DIN1-01-07-2022.eaf
--,1788965,1826458,37493,interloc-lng-aud-P,INTERLOC,père,../data/inputfiles/FD-F4-DIN1-01-07-2022.eaf
--,1788965,1802697,13732,script-lng-aud-P,prod-audible,père,../data/inputfiles/FD-F4-DIN1-01-07-2022.eaf
--,1788965,1802697,13732,lng-aud-P,lng-aud,père,../data/inputfiles/FD-F4-DIN1-01-07-2022.eaf
din,1790997,1810639,19642,act-vis-P,act-vis,père,../data/inputfiles/FD-F4-DIN1-01-07-2022.eaf
du billard non ?,1802697,1803779,1082,script-lng-aud-P,prod-audible,père,../data/inputfiles/FD-F4-DIN1-01-07-2022.eaf
fra,1802697,1803779,1082,lng-aud-P,lng-aud,père,../data/inputfiles/FD-F4-DIN1-01-07-2022.eaf
--,1803779,1826458,22679,lng-aud-P,lng-aud,père,../data/inputfiles/FD-F4-DIN1-01-07-2022.eaf
--,1803779,1826458,22679,script-lng-aud-P,prod-audible,père,../data/inputfiles/FD-F4-DIN1-01-07-2022.eaf
non-din,1810639,1827941,17302,act-vis-P,act-vis,père,../data/inputfiles/FD-F4-DIN1-01-07-2022.eaf
1-Ea,1826458,1827426,968,interloc-lng-aud-P,INTERLOC,père,../data/inputfiles/FD-F4-DIN1-01-07-2022.eaf
fra,1826458,1827426,968,lng-aud-P,lng-aud,père,../data/inputfiles/FD-F4-DIN1-01-07-2022.eaf
non moi j(e) vais +/.,1826458,1827426,968,script-lng-aud-P,prod-audible,père,../data/inputfiles/FD-F4-DIN1-01-07-2022.eaf
--,1827426,1829505,2079,interloc-lng-aud-P,INTERLOC,père,../data/inputfiles/FD-F4-DIN1-01-07-2022.eaf
--,1827426,1829505,2079,lng-aud-P,lng-aud,père,../data/inputfiles/FD-F4-DIN1-01-07-2022.eaf
--,1827426,1829505,2079,script-lng-aud-P,prod-audible,père,../data/inputfiles/FD-F4-DIN1-01-07-2022.eaf
din,1827941,1872637,44696,act-vis-P,act-vis,père,../data/inputfiles/FD-F4-DIN1-01-07-2022.eaf
fra,1829505,1830892,1387,lng-aud-P,lng-aud,père,../data/inputfiles/FD-F4-DIN1-01-07-2022.eaf
+< si y+a une autre .,1829505,1830892,1387,script-lng-aud-P,prod-audible,père,../data/inputfiles/FD-F4-DIN1-01-07-2022.eaf
1-Ea,1829505,1830892,1387,interloc-lng-aud-P,INTERLOC,père,../data/inputfiles/FD-F4-DIN1-01-07-2022.eaf
--,1830892,1881266,50374,lng-aud-P,lng-aud,père,../data/inputfiles/FD-F4-DIN1-01-07-2022.eaf
--,1830892,1881266,50374,interloc-lng-aud-P,INTERLOC,père,../data/inputfiles/FD-F4-DIN1-01-07-2022.eaf
--,1830892,1881266,50374,script-lng-aud-P,prod-audible,père,../data/inputfiles/FD-F4-DIN1-01-07-2022.eaf
--,1872637,1893635,20998,act-vis-P,act-vis,père,../data/inputfiles/FD-F4-DIN1-01-07-2022.eaf
"+, en son aïeul .",1881266,1882767,1501,script-lng-aud-P,prod-audible,père,../data/inputfiles/FD-F4-DIN1-01-07-2022.eaf
fra,1881266,1882767,1501,lng-aud-P,lng-aud,père,../data/inputfiles/FD-F4-DIN1-01-07-2022.eaf
1-M,1881266,1882767,1501,interloc-lng-aud-P,INTERLOC,père,../data/inputfiles/FD-F4-DIN1-01-07-2022.eaf
et quoi d' autre que j' ai pas vu ?,1882767,1884311,1544,script-lng-aud-P,prod-audible,père,../data/inputfiles/FD-F4-DIN1-01-07-2022.eaf
fra,1882767,1884311,1544,lng-aud-P,lng-aud,père,../data/inputfiles/FD-F4-DIN1-01-07-2022.eaf
1-Ea,1882767,1884311,1544,interloc-lng-aud-P,INTERLOC,père,../data/inputfiles/FD-F4-DIN1-01-07-2022.eaf
--,1884311,1891815,7504,script-lng-aud-P,prod-audible,père,../data/inputfiles/FD-F4-DIN1-01-07-2022.eaf
--,1884311,1891815,7504,lng-aud-P,lng-aud,père,../data/inputfiles/FD-F4-DIN1-01-07-2022.eaf
--,1884311,1891815,7504,interloc-lng-aud-P,INTERLOC,père,../data/inputfiles/FD-F4-DIN1-01-07-2022.eaf
+< ça j' ai pas vu ça .,1891815,1893187,1372,script-lng-aud-P,prod-audible,père,../data/inputfiles/FD-F4-DIN1-01-07-2022.eaf
1-Ea,1891815,1893187,1372,interloc-lng-aud-P,INTERLOC,père,../data/inputfiles/FD-F4-DIN1-01-07-2022.eaf
fra,1891815,1893187,1372,lng-aud-P,lng-aud,père,../data/inputfiles/FD-F4-DIN1-01-07-2022.eaf
ah ça va avec c'est pour ça qu' il a les mains comme ça ?,1893187,1895974,2787,script-lng-aud-P,prod-audible,père,../data/inputfiles/FD-F4-DIN1-01-07-2022.eaf
1-M,1893187,1895974,2787,interloc-lng-aud-P,INTERLOC,père,../data/inputfiles/FD-F4-DIN1-01-07-2022.eaf
fra,1893187,1895974,2787,lng-aud-P,lng-aud,père,../data/inputfiles/FD-F4-DIN1-01-07-2022.eaf
din,1893635,1958742,65107,act-vis-P,act-vis,père,../data/inputfiles/FD-F4-DIN1-01-07-2022.eaf
0-self,1893635,1958742,65107,interact-act-vis-P,INTERLOC,père,../data/inputfiles/FD-F4-DIN1-01-07-2022.eaf
--,1895974,2138486,242512,script-lng-aud-P,prod-audible,père,../data/inputfiles/FD-F4-DIN1-01-07-2022.eaf
--,1895974,2138486,242512,interloc-lng-aud-P,INTERLOC,père,../data/inputfiles/FD-F4-DIN1-01-07-2022.eaf
--,1895974,2138486,242512,lng-aud-P,lng-aud,père,../data/inputfiles/FD-F4-DIN1-01-07-2022.eaf
--,1958742,1980170,21428,interact-act-vis-P,INTERLOC,père,../data/inputfiles/FD-F4-DIN1-01-07-2022.eaf
--,1958742,1980170,21428,act-vis-P,act-vis,père,../data/inputfiles/FD-F4-DIN1-01-07-2022.eaf
1-Eb,1980170,2131862,151692,interact-act-vis-P,INTERLOC,père,../data/inputfiles/FD-F4-DIN1-01-07-2022.eaf
din,1980170,2131862,151692,act-vis-P,act-vis,père,../data/inputfiles/FD-F4-DIN1-01-07-2022.eaf
--,2131862,2144800,12938,act-vis-P,act-vis,père,../data/inputfiles/FD-F4-DIN1-01-07-2022.eaf
--,2131862,2144800,12938,interact-act-vis-P,INTERLOC,père,../data/inputfiles/FD-F4-DIN1-01-07-2022.eaf
ind,2138486,2142661,4175,lng-aud-P,lng-aud,père,../data/inputfiles/FD-F4-DIN1-01-07-2022.eaf
gest-lsf,2138486,2142661,4175,lng-vis-P,lng-vis,père,../data/inputfiles/FD-F4-DIN1-01-07-2022.eaf
1-Eb,2138486,2142661,4175,interloc-lng-aud-P,INTERLOC,père,../data/inputfiles/FD-F4-DIN1-01-07-2022.eaf
1-Eb,2138486,2142661,4175,interloc-lng-vis-P,INTERLOC,père,../data/inputfiles/FD-F4-DIN1-01-07-2022.eaf
xxx .,2138486,2142661,4175,script-lng-aud-P,prod-audible,père,../data/inputfiles/FD-F4-DIN1-01-07-2022.eaf
--,2142661,2335830,193169,lng-aud-P,lng-aud,père,../data/inputfiles/FD-F4-DIN1-01-07-2022.eaf
--,2142661,2335830,193169,script-lng-aud-P,prod-audible,père,../data/inputfiles/FD-F4-DIN1-01-07-2022.eaf
--,2142661,2335830,193169,interloc-lng-vis-P,INTERLOC,père,../data/inputfiles/FD-F4-DIN1-01-07-2022.eaf
--,2142661,2335830,193169,interloc-lng-aud-P,INTERLOC,père,../data/inputfiles/FD-F4-DIN1-01-07-2022.eaf
--,2142661,2335830,193169,lng-vis-P,lng-vis,père,../data/inputfiles/FD-F4-DIN1-01-07-2022.eaf
din,2144800,2146630,1830,act-vis-P,act-vis,père,../data/inputfiles/FD-F4-DIN1-01-07-2022.eaf
1-Eb,2144800,2146630,1830,interact-act-vis-P,INTERLOC,père,../data/inputfiles/FD-F4-DIN1-01-07-2022.eaf
--,2146630,2335830,189200,act-vis-P,act-vis,père,../data/inputfiles/FD-F4-DIN1-01-07-2022.eaf
--,2146630,2335830,189200,interact-act-vis-P,INTERLOC,père,../data/inputfiles/FD-F4-DIN1-01-07-2022.eaf
